Assingment 02
…
Usage:

music_data

## # A tibble: 30 x 12
##    timestamp  year month   day  hour minute second music_genre task 
##    <chr>     <dbl> <dbl> <dbl> <dbl> <chr>  <chr>  <chr>       <chr>
##  1 1/12/201  2019     1    12    14 05     24     Electronic  Clea
##  2 1/12/201  2019     1    12    14 05     24     Rock        Clea
##  3 1/12/201  2019     1    12    16 19     56     Hip Hop/Rap Home
##  4 1/13/201  2019     1    13    17 48     04     Rock        Driv
##  5 1/13/201  2019     1    13    17 48     04     Country     Driv
##  6 1/13/201  2019     1    13    19 50     29     Hip Hop/Rap Driv
##  7 1/14/201  2019     1    14    22 45     25     Rock        Driv
##  8 1/15/201  2019     1    15    10 04     58     Country     Home
##  9 1/15/201  2019     1    15    12 43     32     Hip Hop/Rap Walk
## 10 1/16/201  2019     1    16    18 26     03     Hip Hop/Rap Lift
## #  with 20 more rows, and 3 more variables: location <chr>,
## #   duration <dbl>, services <chr>
…
